{
	"info": {
		"_postman_id": "d12a402c-a56d-4e8a-a7f1-6b61a10cdf18",
		"name": "Restful",
		"schema": "https://schema.getpostman.com/json/collection/v2.1.0/collection.json"
	},
	"item": [
		{
			"name": "Get items",
			"event": [
				{
					"listen": "test",
					"script": {
						"exec": [
							"pm.test(\"Response time is less than 200ms\", function () {",
							"    pm.expect(pm.response.responseTime).to.be.below(200);",
							"});",
							"",
							"pm.test(\"Status code is 200\", function () {",
							"    pm.response.to.have.status(200);",
							"});"
						],
						"type": "text/javascript"
					}
				}
			],
			"request": {
				"method": "GET",
				"header": [],
				"url": {
					"raw": "{{url}}/items",
					"host": [
						"{{url}}"
					],
					"path": [
						"items"
					]
				},
				"description": "this shpuld return a list of items"
			},
			"response": []
		},
		{
			"name": "Get item by name",
			"request": {
				"method": "GET",
				"header": [
					{
						"key": "Authorization",
						"value": "JWT {{jwt_token}}",
						"type": "text"
					}
				],
				"url": {
					"raw": "{{url}}/item/<name>",
					"host": [
						"{{url}}"
					],
					"path": [
						"item",
						"<name>"
					]
				},
				"description": "this shpuld return a list of items"
			},
			"response": []
		},
		{
			"name": "Create item",
			"request": {
				"method": "POST",
				"header": [
					{
						"key": "Content-Type",
						"value": "application/json",
						"type": "text"
					},
					{
						"key": "Authorization",
						"value": "JWT {{jwt_token}}",
						"type": "text"
					}
				],
				"body": {
					"mode": "raw",
					"raw": "{\n    \"price\":40.99,\n    \"store_id\":1\n}",
					"options": {
						"raw": {
							"language": "json"
						}
					}
				},
				"url": {
					"raw": "{{url}}/item/PS5",
					"host": [
						"{{url}}"
					],
					"path": [
						"item",
						"PS5"
					]
				},
				"description": "this shpuld return a list of items"
			},
			"response": []
		},
		{
			"name": "Update item",
			"request": {
				"method": "PUT",
				"header": [
					{
						"key": "Content-Type",
						"value": "application/json",
						"type": "text"
					},
					{
						"key": "Authorization",
						"value": "JWT {{jwt_token}}",
						"type": "text"
					}
				],
				"body": {
					"mode": "raw",
					"raw": "{\n    \"price\":17.99\n}",
					"options": {
						"raw": {
							"language": "json"
						}
					}
				},
				"url": {
					"raw": "{{url}}/item/PS5",
					"host": [
						"{{url}}"
					],
					"path": [
						"item",
						"PS5"
					]
				},
				"description": "this shpuld return a list of items"
			},
			"response": []
		},
		{
			"name": "Delete item",
			"request": {
				"method": "DELETE",
				"header": [
					{
						"key": "Authorization",
						"value": "JWT {{jwt_token}}",
						"type": "text"
					}
				],
				"body": {
					"mode": "raw",
					"raw": "",
					"options": {
						"raw": {
							"language": "json"
						}
					}
				},
				"url": {
					"raw": "{{url}}/item/<name>",
					"host": [
						"{{url}}"
					],
					"path": [
						"item",
						"<name>"
					]
				},
				"description": "this shpuld return a list of items"
			},
			"response": []
		},
		{
			"name": "Get token",
			"event": [
				{
					"listen": "test",
					"script": {
						"exec": [
							"var jsonData = JSON.parse(responseBody);",
							"",
							"tests[\"Access token was not empty\"] = jsonData.access_token !== undefined;",
							"pm.environment.set(\"jwt_token\", jsonData.access_token);"
						],
						"type": "text/javascript"
					}
				}
			],
			"request": {
				"method": "POST",
				"header": [
					{
						"key": "Content-Type",
						"value": "application/json",
						"type": "text"
					}
				],
				"body": {
					"mode": "raw",
					"raw": "{\n    \"username\":\"ruben\",\n    \"password\":\"123456\"\n}",
					"options": {
						"raw": {
							"language": "json"
						}
					}
				},
				"url": {
					"raw": "{{url}}/auth",
					"host": [
						"{{url}}"
					],
					"path": [
						"auth"
					]
				}
			},
			"response": []
		},
		{
			"name": "Register",
			"request": {
				"method": "POST",
				"header": [
					{
						"key": "Content-Type",
						"value": "application/json",
						"type": "text"
					}
				],
				"body": {
					"mode": "raw",
					"raw": "{\n    \"username\":\"ruben\",\n    \"password\":\"123456\"\n}",
					"options": {
						"raw": {
							"language": "json"
						}
					}
				},
				"url": {
					"raw": "{{url}}/register",
					"host": [
						"{{url}}"
					],
					"path": [
						"register"
					]
				}
			},
			"response": []
		},
		{
			"name": "Get stores",
			"event": [
				{
					"listen": "test",
					"script": {
						"exec": [
							"pm.test(\"Response time is less than 200ms\", function () {",
							"    pm.expect(pm.response.responseTime).to.be.below(200);",
							"});",
							"",
							"pm.test(\"Status code is 200\", function () {",
							"    pm.response.to.have.status(200);",
							"});"
						],
						"type": "text/javascript"
					}
				}
			],
			"request": {
				"method": "GET",
				"header": [],
				"url": {
					"raw": "{{url}}/stores",
					"host": [
						"{{url}}"
					],
					"path": [
						"stores"
					]
				},
				"description": "this shpuld return a list of items"
			},
			"response": []
		},
		{
			"name": "Get store",
			"request": {
				"method": "GET",
				"header": [
					{
						"key": "Authorization",
						"value": "JWT {{jwt_token}}",
						"type": "text"
					}
				],
				"url": {
					"raw": "{{url}}/store/PS5",
					"host": [
						"{{url}}"
					],
					"path": [
						"store",
						"PS5"
					]
				},
				"description": "this shpuld return a list of items"
			},
			"response": []
		},
		{
			"name": "Create Store",
			"request": {
				"method": "POST",
				"header": [
					{
						"key": "Content-Type",
						"value": "application/json",
						"type": "text"
					},
					{
						"key": "Authorization",
						"value": "JWT {{jwt_token}}",
						"type": "text"
					}
				],
				"body": {
					"mode": "raw",
					"raw": "{\n    \"items\":[],\n    \"name\":\"test\"\n}",
					"options": {
						"raw": {
							"language": "json"
						}
					}
				},
				"url": {
					"raw": "{{url}}/store/test",
					"host": [
						"{{url}}"
					],
					"path": [
						"store",
						"test"
					]
				},
				"description": "this shpuld return a list of items"
			},
			"response": []
		},
		{
			"name": "Delete store",
			"request": {
				"method": "DELETE",
				"header": [
					{
						"key": "Authorization",
						"value": "JWT {{jwt_token}}",
						"type": "text"
					}
				],
				"body": {
					"mode": "raw",
					"raw": "",
					"options": {
						"raw": {
							"language": "json"
						}
					}
				},
				"url": {
					"raw": "{{url}}/store/test",
					"host": [
						"{{url}}"
					],
					"path": [
						"store",
						"test"
					]
				},
				"description": "this shpuld return a list of items"
			},
			"response": []
		}
	]
}